%YAML 1.1
%TAG !u! tag:unity3d.com,2011:
--- !u!114 &11400000
MonoBehaviour:
  m_ObjectHideFlags: 0
  m_CorrespondingSourceObject: {fileID: 0}
  m_PrefabInstance: {fileID: 0}
  m_PrefabAsset: {fileID: 0}
  m_GameObject: {fileID: 0}
  m_Enabled: 1
  m_EditorHideFlags: 0
  m_Script: {fileID: 11500000, guid: 42dff178cdcfb1740a46c868a9902c1e, type: 3}
  m_Name: TradersCharacters
  m_EditorClassIdentifier: 
  AnimationNames:
  - Disappear
  Database:
  - {fileID: 4657488277703332508}
  DatabaseName: TradersCharacters
  DataType: 2
--- !u!114 &4657488277703332508
MonoBehaviour:
  m_ObjectHideFlags: 0
  m_CorrespondingSourceObject: {fileID: 0}
  m_PrefabInstance: {fileID: 0}
  m_PrefabAsset: {fileID: 0}
  m_GameObject: {fileID: 0}
  m_Enabled: 1
  m_EditorHideFlags: 0
  m_Script: {fileID: 11500000, guid: fe5b16c60b843134eb75c4ba6a7b6f52, type: 3}
  m_Name: Disappear
  m_EditorClassIdentifier: 
  Animation:
    AnimationType: 2
    Move:
      AnimationType: 2
      Enabled: 1
      From: {x: 0, y: 0, z: 0}
      To: {x: 0, y: 0, z: 0}
      By: {x: 0, y: 0, z: 0}
      UseCustomFromAndTo: 0
      Vibrato: 10
      Elasticity: 1
      NumberOfLoops: -1
      LoopType: 1
      Direction: 10
      CustomPosition: {x: 0, y: 0, z: 0}
      EaseType: 0
      Ease: 26
      AnimationCurve:
        serializedVersion: 2
        m_Curve:
        - serializedVersion: 3
          time: 0
          value: 0
          inSlope: 2.7912683
          outSlope: 2.7912683
          tangentMode: 0
          weightedMode: 0
          inWeight: 0.33333334
          outWeight: 0.33333334
        - serializedVersion: 3
          time: 0.1591474
          value: 0.27871615
          inSlope: -3.5244074
          outSlope: -3.5244074
          tangentMode: 0
          weightedMode: 0
          inWeight: 0.33333334
          outWeight: 0.33333334
        - serializedVersion: 3
          time: 0.36119476
          value: 0.4033309
          inSlope: -2.5759792
          outSlope: -2.5759792
          tangentMode: 0
          weightedMode: 0
          inWeight: 0.33333334
          outWeight: 0.33333334
        - serializedVersion: 3
          time: 0.6268808
          value: 0.69904834
          inSlope: -2.6110096
          outSlope: -2.6110096
          tangentMode: 0
          weightedMode: 0
          inWeight: 0.33333334
          outWeight: 0.33333334
        - serializedVersion: 3
          time: 0.8133894
          value: 0.8256105
          inSlope: -1.7523863
          outSlope: -1.7523863
          tangentMode: 0
          weightedMode: 0
          inWeight: 0.33333334
          outWeight: 0.33333334
        - serializedVersion: 3
          time: 1
          value: 1
          inSlope: 1
          outSlope: 1
          tangentMode: 0
          weightedMode: 0
          inWeight: 0.33333334
          outWeight: 0.33333334
        m_PreInfinity: 2
        m_PostInfinity: 2
        m_RotationOrder: 4
      StartDelay: 0
      Duration: 0.4
    Rotate:
      AnimationType: 2
      Enabled: 0
      From: {x: 0, y: 0, z: 0}
      To: {x: 0, y: 0, z: 30}
      By: {x: 0, y: 0, z: 0}
      UseCustomFromAndTo: 0
      Vibrato: 10
      Elasticity: 1
      NumberOfLoops: -1
      LoopType: 1
      RotateMode: 0
      EaseType: 0
      Ease: 7
      AnimationCurve:
        serializedVersion: 2
        m_Curve:
        - serializedVersion: 3
          time: 0
          value: 0
          inSlope: 0
          outSlope: 0
          tangentMode: 0
          weightedMode: 0
          inWeight: 0.33333334
          outWeight: 0.33333334
        - serializedVersion: 3
          time: 0.11010569
          value: -0.52979636
          inSlope: -0.09897425
          outSlope: -0.09897425
          tangentMode: 0
          weightedMode: 0
          inWeight: 0.33333334
          outWeight: 0.33333334
        - serializedVersion: 3
          time: 0.30155796
          value: 0.36527365
          inSlope: 3.563434
          outSlope: 3.563434
          tangentMode: 0
          weightedMode: 0
          inWeight: 0.33333334
          outWeight: 0.33333334
        - serializedVersion: 3
          time: 0.57162184
          value: 0.38124081
          inSlope: -0.6628676
          outSlope: -0.6628676
          tangentMode: 0
          weightedMode: 0
          inWeight: 0.33333334
          outWeight: 0.33333334
        - serializedVersion: 3
          time: 0.7800347
          value: 0.8052885
          inSlope: -1.4501308
          outSlope: -1.4501308
          tangentMode: 0
          weightedMode: 0
          inWeight: 0.33333334
          outWeight: 0.33333334
        - serializedVersion: 3
          time: 0.88723725
          value: 0.90770274
          inSlope: -1.0686089
          outSlope: -1.0686089
          tangentMode: 0
          weightedMode: 0
          inWeight: 0.33333334
          outWeight: 0.33333334
        - serializedVersion: 3
          time: 1
          value: 1
          inSlope: 0.27951962
          outSlope: 0.27951962
          tangentMode: 0
          weightedMode: 0
          inWeight: 0.33333334
          outWeight: 0.33333334
        m_PreInfinity: 2
        m_PostInfinity: 2
        m_RotationOrder: 4
      StartDelay: 0
      Duration: 0.45
    Scale:
      AnimationType: 2
      Enabled: 0
      From: {x: 0, y: 0, z: 0}
      To: {x: 1, y: 1, z: 1}
      By: {x: 0, y: 0, z: 0}
      UseCustomFromAndTo: 0
      Vibrato: 10
      Elasticity: 1
      NumberOfLoops: -1
      LoopType: 1
      EaseType: 0
      Ease: 18
      AnimationCurve:
        serializedVersion: 2
        m_Curve:
        - serializedVersion: 3
          time: 0
          value: 0
          inSlope: -5.9445815
          outSlope: -5.9445815
          tangentMode: 0
          weightedMode: 0
          inWeight: 0.33333334
          outWeight: 0.33333334
        - serializedVersion: 3
          time: 0.16861793
          value: -0.6560375
          inSlope: 1.6450882
          outSlope: 1.6450882
          tangentMode: 0
          weightedMode: 0
          inWeight: 0.33333334
          outWeight: 0.33333334
        - serializedVersion: 3
          time: 0.39923504
          value: 1.2821069
          inSlope: 0.10174093
          outSlope: 0.10174093
          tangentMode: 0
          weightedMode: 0
          inWeight: 0.33333334
          outWeight: 0.33333334
        - serializedVersion: 3
          time: 0.5896755
          value: 0.7484784
          inSlope: 1.7945546
          outSlope: 1.7945546
          tangentMode: 0
          weightedMode: 0
          inWeight: 0.33333334
          outWeight: 0.33333334
        - serializedVersion: 3
          time: 1
          value: 1
          inSlope: 0
          outSlope: 0
          tangentMode: 0
          weightedMode: 0
          inWeight: 0.33333334
          outWeight: 0.33333334
        m_PreInfinity: 2
        m_PostInfinity: 2
        m_RotationOrder: 4
      StartDelay: 2
      Duration: 0
    Fade:
      AnimationType: 2
      Enabled: 0
      From: 0
      To: 0
      By: 0.5
      UseCustomFromAndTo: 0
      NumberOfLoops: -1
      LoopType: 1
      EaseType: 0
      Ease: 1
      AnimationCurve:
        serializedVersion: 2
        m_Curve: []
        m_PreInfinity: 2
        m_PostInfinity: 2
        m_RotationOrder: 4
      StartDelay: 2
      Duration: 0
  Category: TradersCharacters
  Name: Disappear
